%YAML 1.1
%TAG !u! tag:unity3d.com,2011:
--- !u!1045 &1
EditorBuildSettings:
  m_ObjectHideFlags: 0
  serializedVersion: 2
  m_Scenes:
  - enabled: 1
    path: Assets/Scenes/Main.unity
    guid: ead7c0b868332224b8a93e154f0f6ac1
  - enabled: 1
    path: Assets/Scenes/Win.unity
    guid: e6a4e2ec73df80c4f89d008a7ce596bb
  - enabled: 1
    path: Assets/Scenes/Lose.unity
    guid: 76694c1c89acfeb45a07aad44a240d0d
  m_configObjects: {}
